EESchema Schematic File Version 4
EELAYER 30 0
EELAYER END
$Descr A4 11693 8268
encoding utf-8
Sheet 1 1
Title ""
Date ""
Rev ""
Comp ""
Comment1 ""
Comment2 ""
Comment3 ""
Comment4 ""
$EndDescr
$Comp
L YAAJ_BluePill:YAAJ_BluePill U1
U 1 1 6164E65A
P 4150 3200
F 0 "U1" H 3700 2200 50  0000 C CNN
F 1 "BluePill" H 3700 2100 50  0000 C CNN
F 2 "BluePill:YAAJ_BluePill_1" V 4075 4150 50  0001 C CNN
F 3 "" V 4075 4150 50  0001 C CNN
	1    4150 3200
	1    0    0    -1  
$EndComp
$Comp
L Connector_Generic:Conn_02x04_Odd_Even J2
U 1 1 61658B55
P 1500 3250
F 0 "J2" H 1550 3567 50  0000 C CNN
F 1 "NRF24L01+" H 1550 3476 50  0000 C CNN
F 2 "Connector_PinHeader_2.54mm:PinHeader_2x04_P2.54mm_Vertical" H 1500 3250 50  0001 C CNN
F 3 "~" H 1500 3250 50  0001 C CNN
	1    1500 3250
	1    0    0    -1  
$EndComp
$Comp
L Connector_Generic:Conn_01x06 J1
U 1 1 61659C27
P 1350 4700
F 0 "J1" H 1268 5117 50  0000 C CNN
F 1 "BME280" H 1268 5026 50  0000 C CNN
F 2 "Connector_PinHeader_2.54mm:PinHeader_1x06_P2.54mm_Vertical" H 1350 4700 50  0001 C CNN
F 3 "~" H 1350 4700 50  0001 C CNN
	1    1350 4700
	-1   0    0    -1  
$EndComp
Wire Wire Line
	1300 3350 1150 3350
Wire Wire Line
	1300 3250 1150 3250
Wire Wire Line
	1300 3150 1150 3150
Wire Wire Line
	1800 3150 1950 3150
Wire Wire Line
	1800 3250 1950 3250
Wire Wire Line
	1800 3350 1950 3350
Wire Wire Line
	1550 4700 1700 4700
Wire Wire Line
	1550 4800 1700 4800
Wire Wire Line
	1550 4900 1700 4900
Wire Wire Line
	1550 5000 1700 5000
Text Label 1700 4700 0    50   ~ 0
SCK
Text Label 1700 4800 0    50   ~ 0
MOSI
Text Label 1700 4900 0    50   ~ 0
SS_BME
Text Label 1700 5000 0    50   ~ 0
MISO
Text Label 1150 3150 2    50   ~ 0
IRQ
Text Label 1150 3250 2    50   ~ 0
MOSI
Text Label 1150 3350 2    50   ~ 0
SS_NRF24
Text Label 1950 3150 0    50   ~ 0
MISO
Text Label 1950 3250 0    50   ~ 0
SCK
Text Label 1950 3350 0    50   ~ 0
CE_NRF24
$Comp
L power:GND #PWR03
U 1 1 61660B2A
P 2050 3550
F 0 "#PWR03" H 2050 3300 50  0001 C CNN
F 1 "GND" H 2055 3377 50  0000 C CNN
F 2 "" H 2050 3550 50  0001 C CNN
F 3 "" H 2050 3550 50  0001 C CNN
	1    2050 3550
	1    0    0    -1  
$EndComp
Wire Wire Line
	2050 3450 2050 3550
Wire Wire Line
	1800 3450 2050 3450
$Comp
L power:GND #PWR04
U 1 1 61661330
P 2150 4650
F 0 "#PWR04" H 2150 4400 50  0001 C CNN
F 1 "GND" H 2155 4477 50  0000 C CNN
F 2 "" H 2150 4650 50  0001 C CNN
F 3 "" H 2150 4650 50  0001 C CNN
	1    2150 4650
	1    0    0    -1  
$EndComp
Wire Wire Line
	2150 4600 2150 4650
Wire Wire Line
	1550 4600 2150 4600
Wire Wire Line
	1800 4500 1800 4450
Wire Wire Line
	1550 4500 1800 4500
Wire Wire Line
	4950 2900 5100 2900
Text Label 5100 2900 0    50   ~ 0
MOSI
Wire Wire Line
	4950 3000 5100 3000
Text Label 5100 3000 0    50   ~ 0
MISO
Wire Wire Line
	4950 3100 5100 3100
Text Label 5100 3100 0    50   ~ 0
SCK
Wire Wire Line
	4950 3200 5100 3200
Wire Wire Line
	4950 3500 5100 3500
Wire Wire Line
	4950 3400 5100 3400
Text Label 5100 3200 0    50   ~ 0
SS_NRF24
Text Label 5100 3400 0    50   ~ 0
CE_NRF24
Text Label 5100 3500 0    50   ~ 0
SS_BME
Wire Wire Line
	3350 2900 3250 2900
Wire Wire Line
	3350 3000 3250 3000
Text Label 3250 2900 2    50   ~ 0
UTX
Text Label 3250 3000 2    50   ~ 0
URX
$Comp
L power:+3.3V #PWR02
U 1 1 61671976
P 1800 4450
F 0 "#PWR02" H 1800 4300 50  0001 C CNN
F 1 "+3.3V" H 1815 4623 50  0000 C CNN
F 2 "" H 1800 4450 50  0001 C CNN
F 3 "" H 1800 4450 50  0001 C CNN
	1    1800 4450
	1    0    0    -1  
$EndComp
Wire Wire Line
	600  3450 600  3400
Wire Wire Line
	600  3450 1300 3450
$Comp
L power:+3.3V #PWR01
U 1 1 61672F1A
P 600 3400
F 0 "#PWR01" H 600 3250 50  0001 C CNN
F 1 "+3.3V" H 615 3573 50  0000 C CNN
F 2 "" H 600 3400 50  0001 C CNN
F 3 "" H 600 3400 50  0001 C CNN
	1    600  3400
	1    0    0    -1  
$EndComp
$Comp
L power:+3.3V #PWR06
U 1 1 61674D8B
P 4250 2000
F 0 "#PWR06" H 4250 1850 50  0001 C CNN
F 1 "+3.3V" H 4265 2173 50  0000 C CNN
F 2 "" H 4250 2000 50  0001 C CNN
F 3 "" H 4250 2000 50  0001 C CNN
	1    4250 2000
	1    0    0    -1  
$EndComp
$Comp
L power:GND #PWR05
U 1 1 61676B81
P 4050 4400
F 0 "#PWR05" H 4050 4150 50  0001 C CNN
F 1 "GND" H 4055 4227 50  0000 C CNN
F 2 "" H 4050 4400 50  0001 C CNN
F 3 "" H 4050 4400 50  0001 C CNN
	1    4050 4400
	1    0    0    -1  
$EndComp
Text Label 5100 3300 0    50   ~ 0
IRQ
Wire Wire Line
	4150 2100 4150 2050
Wire Wire Line
	4250 2100 4250 2050
Wire Wire Line
	4150 2050 4250 2050
Wire Wire Line
	4250 2050 4250 2000
Connection ~ 4250 2050
Wire Wire Line
	3950 4300 3950 4350
Wire Wire Line
	4050 4300 4050 4350
Wire Wire Line
	4150 4300 4150 4350
Wire Wire Line
	3950 4350 4050 4350
Wire Wire Line
	4050 4350 4150 4350
Connection ~ 4050 4350
Wire Wire Line
	4050 4400 4050 4350
NoConn ~ 3350 2400
NoConn ~ 3350 2500
NoConn ~ 3350 2600
NoConn ~ 3350 2700
NoConn ~ 3350 3100
NoConn ~ 3350 3200
NoConn ~ 3350 3300
NoConn ~ 3350 3400
NoConn ~ 3350 3500
NoConn ~ 3350 3600
NoConn ~ 3350 3700
NoConn ~ 3350 3800
NoConn ~ 3350 3900
NoConn ~ 3350 4000
NoConn ~ 4950 3900
NoConn ~ 4950 3800
NoConn ~ 4950 3700
NoConn ~ 4950 3600
NoConn ~ 4950 2800
NoConn ~ 4950 2700
NoConn ~ 4950 2600
NoConn ~ 4950 2500
NoConn ~ 4950 2400
$Comp
L Connector_Generic:Conn_01x02 J3
U 1 1 61694EB0
P 1600 2450
F 0 "J3" H 1518 2667 50  0000 C CNN
F 1 "Conn_01x02" H 1518 2576 50  0000 C CNN
F 2 "Connector_PinHeader_2.54mm:PinHeader_1x02_P2.54mm_Vertical" H 1600 2450 50  0001 C CNN
F 3 "~" H 1600 2450 50  0001 C CNN
	1    1600 2450
	-1   0    0    -1  
$EndComp
Wire Wire Line
	1800 2450 1950 2450
Wire Wire Line
	1800 2550 1950 2550
Text Label 1950 2450 0    50   ~ 0
UTX
Text Label 1950 2550 0    50   ~ 0
URX
$Comp
L Connector_Generic:Conn_01x02 J4
U 1 1 616AF6C6
P 1600 1850
F 0 "J4" H 1518 2067 50  0000 C CNN
F 1 "Conn_01x02" H 1518 1976 50  0000 C CNN
F 2 "Connector_PinHeader_2.54mm:PinHeader_1x02_P2.54mm_Vertical" H 1600 1850 50  0001 C CNN
F 3 "~" H 1600 1850 50  0001 C CNN
	1    1600 1850
	-1   0    0    -1  
$EndComp
$Comp
L power:+3.3V #PWR0101
U 1 1 616B2E35
P 2000 1750
F 0 "#PWR0101" H 2000 1600 50  0001 C CNN
F 1 "+3.3V" H 2015 1923 50  0000 C CNN
F 2 "" H 2000 1750 50  0001 C CNN
F 3 "" H 2000 1750 50  0001 C CNN
	1    2000 1750
	1    0    0    -1  
$EndComp
$Comp
L power:GND #PWR0102
U 1 1 616B3571
P 2000 2000
F 0 "#PWR0102" H 2000 1750 50  0001 C CNN
F 1 "GND" H 2005 1827 50  0000 C CNN
F 2 "" H 2000 2000 50  0001 C CNN
F 3 "" H 2000 2000 50  0001 C CNN
	1    2000 2000
	1    0    0    -1  
$EndComp
Wire Wire Line
	2000 1850 2000 1750
Wire Wire Line
	1800 1850 2000 1850
Wire Wire Line
	2000 1950 2000 2000
Wire Wire Line
	1800 1950 2000 1950
Wire Wire Line
	4950 3300 5100 3300
$EndSCHEMATC
